Practical intro to R - Programming and reproducibility
…
maximum brainwt for each order

msleep %>% group_by(order) %>% 
  slice_max(brainwt,n=1)

# A tibble: 21 × 11
# Groups:   order [19]
   name   genus vore  order conservation sleep_total sleep_rem sleep_cycle awake
   <chr>  <chr> <chr> <chr> <chr>              <dbl>     <dbl>       <dbl> <dbl>
 1 Tenrec Tenr… omni  Afro… <NA>                15.6       2.3      NA       8.4
 2 Cow    Bos   herbi Arti… domesticated         4         0.7       0.667  20  
 3 Gray … Hali… carni Carn… lc                   6.2       1.5      NA      17.8
 4 Pilot… Glob… carni Ceta… cd                   2.7       0.1      NA      21.4
 5 Commo… Phoc… carni Ceta… vu                   5.6      NA        NA      18.4
 6 Bottl… Turs… carni Ceta… <NA>                 5.2      NA        NA      18.8
 7 Big b… Epte… inse… Chir… lc                  19.7       3.9       0.117   4.3
 8 Giant… Prio… inse… Cing… en                  18.1       6.1      NA       5.9
 9 North… Dide… omni  Dide… lc                  18         4.9       0.333   6  
10 Phala… Phal… <NA>  Dipr… <NA>                13.7       1.8      NA      10.3
# ℹ 11 more rows
# ℹ 2 more variables: brainwt <dbl>, bodywt <dbl>
…
